{
  "app": "python3 app.py",
  "context": {
    "@aws-cdk/core:enableStackNameDuplicates": "true",
    "aws-cdk:enableDiffNoFail": "true",
    "@aws-cdk/core:stackRelativeExports": "true",
    "@aws-cdk/aws-ecr-assets:dockerIgnoreSupport": true,
    "@aws-cdk/aws-secretsmanager:parseOwnedSecretName": true,
    "@aws-cdk/aws-kms:defaultKeyPolicies": true,
    "accountID": "429506819373",
    "region": "us-east-1",
    "securityGroupID":"sg-0e09ec8940d72548d",
    "vpcID": "vpc-d1c1dcab",
    "linuxUbuntu20.04": "ami-0885b1f6bd170450c",
    "pemKeyName": "mac-book-13-inch"
  }
}
